R for Data Science Code Examples - Chapter 3
…
# A tibble: 1 × 1
      n
  <int>
1  1844

Exercise 3.2.5.2

Sort flights to find the flights with longest departure delays. Find the flights that left earliest in the morning.

Answer: The longest delay was 1,301 minutes and many flights left at 12:01AM.

flights %>% 
  arrange(desc(dep_delay))

# A tibble: 336,776 × 19
    year month   day dep_time sched_dep_time dep_delay arr_time sched_arr_time
   <int> <int> <int>    <int>          <int>     <dbl>    <int>          <int>
 1  2013     1     9      641            900      1301     1242           1530
 2  2013     6    15     1432           1935      1137     1607           2120
 3  2013     1    10     1121           1635      1126     1239           1810
 4  2013     9    20     1139           1845      1014     1457           2210
 5  2013     7    22      845           1600      1005     1044           1815
 6  2013     4    10     1100           1900       960     1342           2211
 7  2013     3    17     2321            810       911      135           1020
 8  2013     6    27      959           1900       899     1236           2226
 9  2013     7    22     2257            759       898      121           1026
10  2013    12     5      756           1700       896     1058           2020
# ℹ 336,766 more rows
# ℹ 11 more variables: arr_delay <dbl>, carrier <chr>, flight <int>,
#   tailnum <chr>, origin <chr>, dest <chr>, air_time <dbl>, distance <dbl>,
#   hour <dbl>, minute <dbl>, time_hour <dttm>

flights %>% 
  arrange(dep_time)

# A tibble: 336,776 × 19
    year month   day dep_time sched_dep_time dep_delay arr_time sched_arr_time
   <int> <int> <int>    <int>          <int>     <dbl>    <int>          <int>
 1  2013     1    13        1           2249        72      108           2357
 2  2013     1    31        1           2100       181      124           2225
 3  2013    11    13        1           2359         2      442            440
 4  2013    12    16        1           2359         2      447            437
 5  2013    12    20        1           2359         2      430            440
 6  2013    12    26        1           2359         2      437            440
 7  2013    12    30        1           2359         2      441            437
 8  2013     2    11        1           2100       181      111           2225
 9  2013     2    24        1           2245        76      121           2354
10  2013     3     8        1           2355         6      431            440
# ℹ 336,766 more rows
# ℹ 11 more variables: arr_delay <dbl>, carrier <chr>, flight <int>,
#   tailnum <chr>, origin <chr>, dest <chr>, air_time <dbl>, distance <dbl>,
#   hour <dbl>, minute <dbl>, time_hour <dttm>
…
Compare dep_time, sched_dep_time, and dep_delay. How would you expect those three numbers to be related?

1 answer: sched_dep_time is the time the flight was scheduled to leave while dep_time is when the flight actually departed. dep_delay is the difference between dep_time and sched_dep_time.

Exercise 3.3.5.2

Brainstorm as many ways as possible to select dep_time, dep_delay, arr_time, and arr_delay from flights.

2 answer: here are 4 ways complete this task:

flights %>% 
  select(dep_time, dep_delay, arr_time, arr_delay)

# A tibble: 336,776 × 4
   dep_time dep_delay arr_time arr_delay
      <int>     <dbl>    <int>     <dbl>
 1      517         2      830        11
 2      533         4      850        20
 3      542         2      923        33
 4      544        -1     1004       -18
 5      554        -6      812       -25
 6      554        -4      740        12
 7      555        -5      913        19
 8      557        -3      709       -14
 9      557        -3      838        -8
10      558        -2      753         8
# ℹ 336,766 more rows

flights %>% select(starts_with("dep") | starts_with("arr"))

# A tibble: 336,776 × 4
   dep_time dep_delay arr_time arr_delay
      <int>     <dbl>    <int>     <dbl>
 1      517         2      830        11
 2      533         4      850        20
 3      542         2      923        33
 4      544        -1     1004       -18
 5      554        -6      812       -25
 6      554        -4      740        12
 7      555        -5      913        19
 8      557        -3      709       -14
 9      557        -3      838        -8
10      558        -2      753         8
# ℹ 336,766 more rows

flights %>% 
  select(ends_with("_time") | ends_with("delay")) %>% 
  select(!starts_with("sched") & !starts_with("air"))

# A tibble: 336,776 × 4
   dep_time arr_time dep_delay arr_delay
      <int>    <int>     <dbl>     <dbl>
 1      517      830         2        11
 2      533      850         4        20
 3      542      923         2        33
 4      544     1004        -1       -18
 5      554      812        -6       -25
 6      554      740        -4        12
 7      555      913        -5        19
 8      557      709        -3       -14
 9      557      838        -3        -8
10      558      753        -2         8
# ℹ 336,766 more rows

flights %>% 
  select(!year:day & !sched_dep_time & !sched_arr_time & !carrier:time_hour)

# A tibble: 336,776 × 4
   dep_time dep_delay arr_time arr_delay
      <int>     <dbl>    <int>     <dbl>
 1      517         2      830        11
 2      533         4      850        20
 3      542         2      923        33
 4      544        -1     1004       -18
 5      554        -6      812       -25
 6      554        -4      740        12
 7      555        -5      913        19
 8      557        -3      709       -14
 9      557        -3      838        -8
10      558        -2      753         8
# ℹ 336,766 more rows

Exercise 3.3.5.3

What happens if you specify the name of the same variable multiple times in a select() call?

3 answer: that variable only shows up in one column regardless, this does not produce an error or cause it to be selected twice.

flights %>% 
  select(year, year)

# A tibble: 336,776 × 1
    year
   <int>
 1  2013
 2  2013
 3  2013
 4  2013
 5  2013
 6  2013
 7  2013
 8  2013
 9  2013
10  2013
# ℹ 336,766 more rows

Exercise 3.3.5.4

What does the any_of() function do? Why might it be helpful in conjunction with this vector?

4 answer: it is a selection helper that allows us to select any variables with names matching those listed in the vector. It is similar to the “all_of” selection helper, but unlike “all_of”, it won’t generate an error if any element of the vector is missing from the dataset.

variables <- c("year", "month", "day", "dep_delay", "arr_delay")

flights %>% 
  select(all_of(variables))

# A tibble: 336,776 × 5
    year month   day dep_delay arr_delay
   <int> <int> <int>     <dbl>     <dbl>
 1  2013     1     1         2        11
 2  2013     1     1         4        20
 3  2013     1     1         2        33
 4  2013     1     1        -1       -18
 5  2013     1     1        -6       -25
 6  2013     1     1        -4        12
 7  2013     1     1        -5        19
 8  2013     1     1        -3       -14
 9  2013     1     1        -3        -8
10  2013     1     1        -2         8
# ℹ 336,766 more rows

Exercise 3.3.5.5

Does the result of running the following code surprise you? How do the select helpers deal with upper and lower case by default? How can you change that default?

5 answer: selection helpers in dplyr have ignore.case set to TRUE, meaning case will be ignored when searching for variable names that match the specified string. The default can be changed by setting ignore.case to FALSE.

flights %>% select(contains("TIME"))

# A tibble: 336,776 × 6
   dep_time sched_dep_time arr_time sched_arr_time air_time time_hour          
      <int>          <int>    <int>          <int>    <dbl> <dttm>             
 1      517            515      830            819      227 2013-01-01 05:00:00
 2      533            529      850            830      227 2013-01-01 05:00:00
 3      542            540      923            850      160 2013-01-01 05:00:00
 4      544            545     1004           1022      183 2013-01-01 05:00:00
 5      554            600      812            837      116 2013-01-01 06:00:00
 6      554            558      740            728      150 2013-01-01 05:00:00
 7      555            600      913            854      158 2013-01-01 06:00:00
 8      557            600      709            723       53 2013-01-01 06:00:00
 9      557            600      838            846      140 2013-01-01 06:00:00
10      558            600      753            745      138 2013-01-01 06:00:00
# ℹ 336,766 more rows

flights %>%  select(contains("TIME", ignore.case = FALSE))

# A tibble: 336,776 × 0

Exercise 3.3.5.6

Rename air_time to air_time_min to indicate units of measurement and move it to the beginning of the data frame.

flights %>% 
  rename(air_time_min = air_time) %>% 
  relocate(air_time_min)

# A tibble: 336,776 × 19
   air_time_min  year month   day dep_time sched_dep_time dep_delay arr_time
          <dbl> <int> <int> <int>    <int>          <int>     <dbl>    <int>
 1          227  2013     1     1      517            515         2      830
 2          227  2013     1     1      533            529         4      850
 3          160  2013     1     1      542            540         2      923
 4          183  2013     1     1      544            545        -1     1004
 5          116  2013     1     1      554            600        -6      812
 6          150  2013     1     1      554            558        -4      740
 7          158  2013     1     1      555            600        -5      913
 8           53  2013     1     1      557            600        -3      709
 9          140  2013     1     1      557            600        -3      838
10          138  2013     1     1      558            600        -2      753
# ℹ 336,766 more rows
# ℹ 11 more variables: sched_arr_time <int>, arr_delay <dbl>, carrier <chr>,
#   flight <int>, tailnum <chr>, origin <chr>, dest <chr>, distance <dbl>,
#   hour <dbl>, minute <dbl>, time_hour <dttm>
Exercise 3.3.5.7

Why doesn’t the following work, and what does the error mean?

7 answer: the error means that arr_delay is not included in the dataset. This is because selecting tailnum removes every other variable, including arr_delay, from the dataset. This could be revised with the following code:

# flights %>% 
#   select(tailnum) %>% 
#   arrange(arr_delay)

flights %>% 
  select(tailnum, arr_delay) %>% 
  arrange(arr_delay)

# A tibble: 336,776 × 2
   tailnum arr_delay
   <chr>       <dbl>
 1 N843VA        -86
 2 N840VA        -79
 3 N851UA        -75
 4 N3KCAA        -75
 5 N551AS        -74
 6 N24212        -73
 7 N3760C        -71
 8 N806UA        -71
 9 N805JB        -71
10 N855VA        -70
# ℹ 336,766 more rows
…
